vcd/axi_module_valid.vcd
$date
   Thu Nov 17 17:28:53 2022
$end
$version
  2020.2
$end
$timescale
  1ps
$end
$scope module tb $end
$var reg 1 6 aclk $end
$var reg 1 7 slow_clk $end
$var reg 1 8 areset $end
$var reg 1 9 up_valid $end
$var wire 1 & up_ready $end
$var wire 1 # down_ready $end
$var wire 1 1 down_valid $end
$var wire 1 : last_valid $end
$var reg 1 ; last_ready $end
$var reg 8 < up_data [7:0] $end
$var wire 8 2 down_data [7:0] $end
$var wire 8 = last_data [7:0] $end
$var parameter 32 > DWIDTH [31:0] $end
$scope module master $end
$var wire 1 ! aclk_i $end
$var wire 1 " areset_i $end
$var wire 1 # ready_i $end
$var reg 1 $ valid_o $end
$var reg 8 % data_o [7:0] $end
$var wire 1 & ready_o $end
$var wire 1 ' valid_i $end
$var wire 8 ( data_i [7:0] $end
$var reg 1 ) valid_i_reg $end
$var reg 8 * data_reg [7:0] $end
$var parameter 32 + DWIDTH [31:0] $end
$upscope $end
$scope module slave $end
$var wire 1 , aclk_i $end
$var wire 1 - areset_i $end
$var wire 1 . ready_i $end
$var reg 1 / valid_o $end
$var reg 8 0 data_o [7:0] $end
$var wire 1 # ready_o $end
$var wire 1 1 valid_i $end
$var wire 8 2 data_i [7:0] $end
$var reg 1 3 valid_i_reg $end
$var reg 8 4 data_reg [7:0] $end
$var parameter 32 5 DWIDTH [31:0] $end
$upscope $end
$upscope $end
$enddefinitions $end
#0
$dumpvars
0!
1"
x#
x$
bx %
x&
0'
b0 (
x)
bx *
b1000 +
0,
1-
0.
x/
bx 0
x1
bx 2
x3
bx 4
b1000 5
06
07
18
09
x:
0;
b0 <
bx =
b1000 >
$end
#5000
1!
1#
0$
b0 %
1&
0)
b1 *
1,
0/
b0 0
01
b0 2
16
0:
b0 <
b0 =
#10000
0!
0,
06
#15000
1!
1,
03
b1 4
16
b0 <
#20000
0!
0,
06
#25000
1!
1,
16
b0 <
#30000
0!
0,
06
#35000
1!
1,
16
b0 <
#40000
0!
0,
06
#45000
1!
1,
16
b0 <
#50000
0!
0,
06
#55000
1!
1,
16
b0 <
#60000
0!
0,
06
#65000
1!
1,
16
b0 <
#70000
0!
0,
06
#75000
1!
1,
16
b0 <
#80000
0!
0,
06
#85000
1!
1,
16
b0 <
#90000
0!
0,
06
#95000
1!
1,
16
b0 <
#100000
0!
0"
1#
0,
0-
1.
06
17
08
09
1;
#105000
1!
b10 %
1,
b10 0
b10 2
16
b0 <
b10 =
#110000
0!
0,
06
#115000
1!
1,
b11 4
16
b0 <
#120000
0!
0,
06
#125000
1!
1,
b100 0
16
b0 <
b100 =
#130000
0!
0,
06
#135000
1!
1,
16
b0 <
#140000
0!
0,
06
#145000
1!
1,
16
b0 <
#150000
0!
0,
06
#155000
1!
1,
16
b0 <
#160000
0!
0,
06
#165000
1!
1,
16
b0 <
#170000
0!
0,
06
#175000
1!
1,
16
b0 <
#180000
0!
0,
06
#185000
1!
1,
16
b0 <
#190000
0!
0,
06
#195000
1!
1,
16
b0 <
#200000
0!
0,
06
07
#205000
1!
1,
16
b0 <
#210000
0!
0,
06
#215000
1!
1,
16
b0 <
#220000
0!
0,
06
#225000
1!
1,
16
b0 <
#230000
0!
0,
06
#235000
1!
1,
16
b0 <
#240000
0!
0,
06
#245000
1!
1,
16
b0 <
#250000
0!
0,
06
#255000
1!
1,
16
b0 <
#260000
0!
0,
06
#265000
1!
1,
16
b0 <
#270000
0!
0,
06
#275000
1!
1,
16
b0 <
#280000
0!
0,
06
#285000
1!
1,
16
b0 <
#290000
0!
0,
06
#295000
1!
1,
16
b0 <
#300000
0!
1'
0,
06
17
19
1;
#305000
1!
b1101 (
1)
1,
16
b1101 <
#310000
0!
0,
06
#315000
1!
1$
b10001101 (
b1110 *
1,
11
16
b10001101 <
#320000
0!
0,
06
#325000
1!
b1111 %
b1100101 (
b10001110 *
1,
b1111 2
13
16
b1100101 <
#330000
0!
0,
06
#335000
1!
1#
b10001111 %
b10010 (
b1100110 *
1,
1/
b10001111 2
b10000 4
16
1:
b10010 <
#340000
0!
0,
06
#345000
1!
b1100111 %
b1 (
b10011 *
1,
b10001 0
b1100111 2
b10010000 4
16
b1 <
b10001 =
#350000
0!
0,
06
#355000
1!
b10100 %
b1101 (
b10 *
1,
b10010001 0
b10100 2
b1101000 4
16
b1101 <
b10010001 =
#360000
0!
0,
06
#365000
1!
b11 %
b1110110 (
b1110 *
1,
b1101001 0
b11 2
b10101 4
16
b1110110 <
b1101001 =
#370000
0!
0,
06
#375000
1!
b1111 %
b111101 (
b1110111 *
1,
b10110 0
b1111 2
b100 4
16
b111101 <
b10110 =
#380000
0!
0,
06
#385000
1!
b1111000 %
b11101101 (
b111110 *
1,
b101 0
b1111000 2
b10000 4
16
b11101101 <
b101 =
#390000
0!
0,
06
#395000
1!
b111111 %
b10001100 (
b11101110 *
1,
b10001 0
b111111 2
b1111001 4
16
b10001100 <
b10001 =
#400000
0!
0,
06
07
#405000
1!
b11101111 %
b11111001 (
b10001101 *
1,
b1111010 0
b11101111 2
b1000000 4
16
b11111001 <
b1111010 =
#410000
0!
0,
06
#415000
1!
b10001110 %
b11000110 (
b11111010 *
1,
b1000001 0
b10001110 2
b11110000 4
16
b11000110 <
b1000001 =
#420000
0!
0,
06
#425000
1!
b11111011 %
b11000101 (
b11000111 *
1,
b11110001 0
b11111011 2
b10001111 4
16
b11000101 <
b11110001 =
#430000
0!
0,
06
#435000
1!
b11001000 %
b10101010 (
b11000110 *
1,
b10010000 0
b11001000 2
b11111100 4
16
b10101010 <
b10010000 =
#440000
0!
0,
06
#445000
1!
b11000111 %
b11100101 (
b10101011 *
1,
b11111101 0
b11000111 2
b11001001 4
16
b11100101 <
b11111101 =
#450000
0!
0,
06
#455000
1!
b10101100 %
b1110111 (
b11100110 *
1,
b11001010 0
b10101100 2
b11001000 4
16
b1110111 <
b11001010 =
#460000
0!
0,
06
#465000
1!
b11100111 %
b10010 (
b1111000 *
1,
b11001001 0
b11100111 2
b10101101 4
16
b10010 <
b11001001 =
#470000
0!
0,
06
#475000
1!
b1111001 %
b10001111 (
b10011 *
1,
b10101110 0
b1111001 2
b11101000 4
16
b10001111 <
b10101110 =
#480000
0!
0,
06
#485000
1!
b10100 %
b11110010 (
b10010000 *
1,
b11101001 0
b10100 2
b1111010 4
16
b11110010 <
b11101001 =
#490000
0!
0,
06
#495000
1!
b10010001 %
b11001110 (
b11110011 *
1,
b1111011 0
b10010001 2
b10101 4
16
b11001110 <
b1111011 =
#500000
0!
0'
0,
06
17
09
1;
#505000
1!
b11110100 %
0)
b11001111 *
1,
b10110 0
b11110100 2
b10010010 4
16
b11001110 <
b10110 =
#510000
0!
0,
06
#515000
1!
0$
b11010000 %
1,
b10010011 0
01
b11010000 2
b11110101 4
16
b11001110 <
b10010011 =
#520000
0!
0,
06
#525000
1!
1,
b11110110 0
03
b11010001 4
16
b11001110 <
b11110110 =
#530000
0!
0,
06
#535000
1!
1#
1,
0/
b11010010 0
16
0:
b11001110 <
b11010010 =
#540000
0!
0,
06
#545000
1!
1,
16
b11001110 <
#550000
0!
0,
06
#555000
1!
1,
16
b11001110 <
#560000
0!
0,
06
#565000
1!
1,
16
b11001110 <
#570000
0!
0,
06
#575000
1!
1,
16
b11001110 <
#580000
0!
0,
06
#585000
1!
1,
16
b11001110 <
#590000
0!
0,
06
#595000
1!
1,
16
b11001110 <
#600000
0!
0,
06
07
#605000
1!
1,
16
b11001110 <
#610000
0!
0,
06
#615000
1!
1,
16
b11001110 <
#620000
0!
0,
06
#625000
1!
1,
16
b11001110 <
#630000
0!
0,
06
#635000
1!
1,
16
b11001110 <
#640000
0!
0,
06
#645000
1!
1,
16
b11001110 <
#650000
0!
0,
06
#655000
1!
1,
16
b11001110 <
#660000
0!
0,
06
#665000
1!
1,
16
b11001110 <
#670000
0!
0,
06
#675000
1!
1,
16
b11001110 <
#680000
0!
0,
06
#685000
1!
1,
16
b11001110 <
#690000
0!
0,
06
#695000
1!
1,
16
b11001110 <
#700000
0!
0,
06
17
09
1;
#705000
1!
1,
16
b11001110 <
#710000
0!
0,
06
#715000
1!
1,
16
b11001110 <
#720000
0!
0,
06
#725000
1!
1,
16
b11001110 <
#730000
0!
0,
06
#735000
1!
1,
16
b11001110 <
#740000
0!
0,
06
#745000
1!
1,
16
b11001110 <
#750000
0!
0,
06
#755000
1!
1,
16
b11001110 <
#760000
0!
0,
06
#765000
1!
1,
16
b11001110 <
#770000
0!
0,
06
#775000
1!
1,
16
b11001110 <
#780000
0!
0,
06
#785000
1!
1,
16
b11001110 <
#790000
0!
0,
06
#795000
1!
1,
16
b11001110 <
#800000
0!
0,
06
07
#805000
1!
1,
16
b11001110 <
#810000
0!
0,
06
#815000
1!
1,
16
b11001110 <
#820000
0!
0,
06
#825000
1!
1,
16
b11001110 <
#830000
0!
0,
06
#835000
1!
1,
16
b11001110 <
#840000
0!
0,
06
#845000
1!
1,
16
b11001110 <
#850000
0!
0,
06
#855000
1!
1,
16
b11001110 <
#860000
0!
0,
06
#865000
1!
1,
16
b11001110 <
#870000
0!
0,
06
#875000
1!
1,
16
b11001110 <
#880000
0!
0,
06
#885000
1!
1,
16
b11001110 <
#890000
0!
0,
06
#895000
1!
1,
16
b11001110 <
#900000
0!
1'
0,
06
17
19
1;
#905000
1!
b1100011 (
1)
1,
16
b1100011 <
#910000
0!
0,
06
#915000
1!
1$
b1010 (
b1100100 *
1,
11
16
b1010 <
#920000
0!
0,
06
#925000
1!
b1100101 %
b10000000 (
b1011 *
1,
b1100101 2
13
16
b10000000 <
#930000
0!
0,
06
#935000
1!
1#
b1100 %
b100000 (
b10000001 *
1,
1/
b1100 2
b1100110 4
16
1:
b100000 <
#940000
0!
0,
06
#945000
1!
b10000010 %
b10101010 (
b100001 *
1,
b1100111 0
b10000010 2
b1101 4
16
b10101010 <
b1100111 =
#950000
0!
0,
06
#955000
1!
b100010 %
b10011101 (
b10101011 *
1,
b1110 0
b100010 2
b10000011 4
16
b10011101 <
b1110 =
#960000
0!
0,
06
#965000
1!
b10101100 %
b10010110 (
b10011110 *
1,
b10000100 0
b10101100 2
b100011 4
16
b10010110 <
b10000100 =
#970000
0!
0,
06
#975000
1!
b10011111 %
b10011 (
b10010111 *
1,
b100100 0
b10011111 2
b10101101 4
16
b10011 <
b100100 =
#980000
0!
0,
06
#985000
1!
b10011000 %
b1101 (
b10100 *
1,
b10101110 0
b10011000 2
b10100000 4
16
b1101 <
b10101110 =
#990000
0!
0,
06
#995000
1!
b10101 %
b1010011 (
b1110 *
1,
b10100001 0
b10101 2
b10011001 4
16
b1010011 <
b10100001 =
#1000000
0!
0,
06
07
#1005000
1!
b1111 %
b1101011 (
b1010100 *
1,
b10011010 0
b1111 2
b10110 4
16
b1101011 <
b10011010 =
#1010000
0!
0,
06
#1015000
1!
b1010101 %
b11010101 (
b1101100 *
1,
b10111 0
b1010101 2
b10000 4
16
b11010101 <
b10111 =
#1020000
0!
0,
06
#1025000
1!
b1101101 %
b10 (
b11010110 *
1,
b10001 0
b1101101 2
b1010110 4
16
b10 <
b10001 =
#1030000
0!
0,
06
#1035000
1!
b11010111 %
b10101110 (
b11 *
1,
b1010111 0
b11010111 2
b1101110 4
16
b10101110 <
b1010111 =
#1040000
0!
0,
06
#1045000
1!
b100 %
b11101 (
b10101111 *
1,
b1101111 0
b100 2
b11011000 4
16
b11101 <
b1101111 =
#1050000
0!
0,
06
#1055000
1!
b10110000 %
b11001111 (
b11110 *
1,
b11011001 0
b10110000 2
b101 4
16
b11001111 <
b11011001 =
#1060000
0!
0,
06
#1065000
1!
b11111 %
b100011 (
b11010000 *
1,
b110 0
b11111 2
b10110001 4
16
b100011 <
b110 =
#1070000
0!
0,
06
#1075000
1!
b11010001 %
b1010 (
b100100 *
1,
b10110010 0
b11010001 2
b100000 4
16
b1010 <
b10110010 =
#1080000
0!
0,
06
#1085000
1!
b100101 %
b11001010 (
b1011 *
1,
b100001 0
b100101 2
b11010010 4
16
b11001010 <
b100001 =
#1090000
0!
0,
06
#1095000
1!
b1100 %
b111100 (
b11001011 *
1,
b11010011 0
b1100 2
b100110 4
16
b111100 <
b11010011 =
#1100000
0!
0#
0&
0'
0,
0.
06
17
09
0;
#1105000
1!
b11001100 %
0)
b111101 *
1,
b100111 0
b11001100 2
b1101 4
16
b111100 <
b100111 =
#1110000
0!
0,
06
#1115000
1!
0$
b111110 %
1&
1,
b1110 0
01
b111110 2
b11001101 4
16
b111100 <
b1110 =
#1120000
0!
0,
06
#1125000
1!
1,
b11001110 0
03
b111111 4
16
b111100 <
b11001110 =
#1130000
0!
0,
06
#1135000
1!
1#
1,
0/
b1000000 0
16
0:
b111100 <
b1000000 =
#1140000
0!
0,
06
#1145000
1!
1,
16
b111100 <
#1150000
0!
0,
06
#1155000
1!
1,
16
b111100 <
#1160000
0!
0,
06
#1165000
1!
1,
16
b111100 <
#1170000
0!
0,
06
#1175000
1!
1,
16
b111100 <
#1180000
0!
0,
06
#1185000
1!
1,
16
b111100 <
#1190000
0!
0,
06
#1195000
1!
1,
16
b111100 <
#1200000
0!
0,
06
07
#1205000
1!
1,
16
b111100 <
#1210000
0!
0,
06
#1215000
1!
1,
16
b111100 <
#1220000
0!
0,
06
#1225000
1!
1,
16
b111100 <
#1230000
0!
0,
06
#1235000
1!
1,
16
b111100 <
#1240000
0!
0,
06
#1245000
1!
1,
16
b111100 <
#1250000
0!
0,
06
#1255000
1!
1,
16
b111100 <
#1260000
0!
0,
06
#1265000
1!
1,
16
b111100 <
#1270000
0!
0,
06
#1275000
1!
1,
16
b111100 <
#1280000
0!
0,
06
#1285000
1!
1,
16
b111100 <
#1290000
0!
0,
06
#1295000
1!
1,
16
b111100 <
#1300000
0!
1'
0,
06
17
19
0;
#1305000
1!
b1111000 (
1)
1,
16
b1111000 <
#1310000
0!
0,
06
#1315000
1!
1$
b10001001 (
b1111001 *
1,
11
16
b10001001 <
#1320000
0!
0,
06
#1325000
1!
b1111010 %
b11101011 (
b10001010 *
1,
b1111010 2
13
16
b11101011 <
#1330000
0!
0,
06
#1335000
1!
0#
b10001011 %
0&
b10110110 (
b11101100 *
1,
1/
b10001011 2
b1111011 4
16
1:
b10110110 <
#1340000
0!
0,
06
#1345000
1!
b11101101 %
b10110111 *
1,
b1111100 0
b11101101 2
b10001100 4
16
b10110110 <
b1111100 =
#1350000
0!
0,
06
#1355000
1!
b10111000 %
1,
b10001101 0
b10111000 2
b11101110 4
16
b10110110 <
b10001101 =
#1360000
0!
0,
06
#1365000
1!
1,
b11101111 0
b10111001 4
16
b10110110 <
b11101111 =
#1370000
0!
0,
06
#1375000
1!
1,
b10111010 0
16
b10110110 <
b10111010 =
#1380000
0!
0,
06
#1385000
1!
1,
16
b10110110 <
#1390000
0!
0,
06
#1395000
1!
1,
16
b10110110 <
#1400000
0!
0,
06
07
#1405000
1!
1,
16
b10110110 <
#1410000
0!
0,
06
#1415000
1!
1,
16
b10110110 <
#1420000
0!
0,
06
#1425000
1!
1,
16
b10110110 <
#1430000
0!
0,
06
#1435000
1!
1,
16
b10110110 <
#1440000
0!
0,
06
#1445000
1!
1,
16
b10110110 <
#1450000
0!
0,
06
#1455000
1!
1,
16
b10110110 <
#1460000
0!
0,
06
#1465000
1!
1,
16
b10110110 <
#1470000
0!
0,
06
#1475000
1!
1,
16
b10110110 <
#1480000
0!
0,
06
#1485000
1!
1,
16
b10110110 <
#1490000
0!
0,
06
#1495000
1!
1,
16
b10110110 <
#1500000
0!
0'
0,
06
17
09
0;
#1505000
1!
0)
1,
16
b10110110 <
#1510000
0!
0,
06
#1515000
1!
0$
1&
1,
01
16
b10110110 <
#1520000
0!
0,
06
#1525000
1!
1,
03
16
b10110110 <
#1530000
0!
0,
06
#1535000
1!
1#
1,
0/
16
0:
b10110110 <
#1540000
0!
0,
06
#1545000
1!
1,
16
b10110110 <
#1550000
0!
0,
06
#1555000
1!
1,
16
b10110110 <
#1560000
0!
0,
06
#1565000
1!
1,
16
b10110110 <
#1570000
0!
0,
06
#1575000
1!
1,
16
b10110110 <
#1580000
0!
0,
06
#1585000
1!
1,
16
b10110110 <
#1590000
0!
0,
06
#1595000
1!
1,
16
b10110110 <
#1600000
0!
0,
06
07
#1605000
1!
1,
16
b10110110 <
#1610000
0!
0,
06
#1615000
1!
1,
16
b10110110 <
#1620000
0!
0,
06
#1625000
1!
1,
16
b10110110 <
#1630000
0!
0,
06
#1635000
1!
1,
16
b10110110 <
#1640000
0!
0,
06
#1645000
1!
1,
16
b10110110 <
#1650000
0!
0,
06
#1655000
1!
1,
16
b10110110 <
#1660000
0!
0,
06
#1665000
1!
1,
16
b10110110 <
#1670000
0!
0,
06
#1675000
1!
1,
16
b10110110 <
#1680000
0!
0,
06
#1685000
1!
1,
16
b10110110 <
#1690000
0!
0,
06
#1695000
1!
1,
16
b10110110 <
#1700000
0!
0,
06
17
09
0;
#1705000
1!
1,
16
b10110110 <
#1710000
0!
0,
06
#1715000
1!
1,
16
b10110110 <
#1720000
0!
0,
06
#1725000
1!
1,
16
b10110110 <
#1730000
0!
0,
06
#1735000
1!
1,
16
b10110110 <
#1740000
0!
0,
06
#1745000
1!
1,
16
b10110110 <
#1750000
0!
0,
06
#1755000
1!
1,
16
b10110110 <
#1760000
0!
0,
06
#1765000
1!
1,
16
b10110110 <
#1770000
0!
0,
06
#1775000
1!
1,
16
b10110110 <
#1780000
0!
0,
06
#1785000
1!
1,
16
b10110110 <
#1790000
0!
0,
06
#1795000
1!
1,
16
b10110110 <
#1800000
0!
0,
06
07
#1805000
1!
1,
16
b10110110 <
#1810000
0!
0,
06
#1815000
1!
1,
16
b10110110 <
#1820000
0!
0,
06
#1825000
1!
1,
16
b10110110 <
#1830000
0!
0,
06
#1835000
1!
1,
16
b10110110 <
#1840000
0!
0,
06
#1845000
1!
1,
16
b10110110 <
#1850000
0!
0,
06
#1855000
1!
1,
16
b10110110 <
#1860000
0!
0,
06
#1865000
1!
1,
16
b10110110 <
#1870000
0!
0,
06
#1875000
1!
1,
16
b10110110 <
#1880000
0!
0,
06
#1885000
1!
1,
16
b10110110 <
#1890000
0!
0,
06
#1895000
1!
1,
16
b10110110 <
#1900000
0!
1#
1'
0,
1.
06
17
19
1;
#1905000
1!
b10000101 (
1)
1,
16
b10000101 <
#1910000
0!
0,
06
#1915000
1!
1$
b1001111 (
b10000110 *
1,
11
16
b1001111 <
#1920000
0!
0,
06
#1925000
1!
b10000111 %
b111011 (
b1010000 *
1,
b10000111 2
13
16
b111011 <
#1930000
0!
0,
06
#1935000
1!
1#
b1010001 %
b111010 (
b111100 *
1,
1/
b1010001 2
b10001000 4
16
1:
b111010 <
#1940000
0!
0,
06
#1945000
1!
b111101 %
b1111110 (
b111011 *
1,
b10001001 0
b111101 2
b1010010 4
16
b1111110 <
b10001001 =
#1950000
0!
0,
06
#1955000
1!
b111100 %
b10101 (
b1111111 *
1,
b1010011 0
b111100 2
b111110 4
16
b10101 <
b1010011 =
#1960000
0!
0,
06
#1965000
1!
b10000000 %
b11110001 (
b10110 *
1,
b111111 0
b10000000 2
b111101 4
16
b11110001 <
b111111 =
#1970000
0!
0,
06
#1975000
1!
b10111 %
b11011001 (
b11110010 *
1,
b111110 0
b10111 2
b10000001 4
16
b11011001 <
b111110 =
#1980000
0!
0,
06
#1985000
1!
b11110011 %
b1100010 (
b11011010 *
1,
b10000010 0
b11110011 2
b11000 4
16
b1100010 <
b10000010 =
#1990000
0!
0,
06
#1995000
1!
b11011011 %
b1001100 (
b1100011 *
1,
b11001 0
b11011011 2
b11110100 4
16
b1001100 <
b11001 =
#2000000
0!
0,
06
07
#2005000
1!
b1100100 %
b10011111 (
b1001101 *
1,
b11110101 0
b1100100 2
b11011100 4
16
b10011111 <
b11110101 =
#2010000
0!
0,
06
#2015000
1!
b1001110 %
b10001111 (
b10100000 *
1,
b11011101 0
b1001110 2
b1100101 4
16
b10001111 <
b11011101 =
#2020000
0!
0,
06
#2025000
1!
b10100001 %
b11111000 (
b10010000 *
1,
b1100110 0
b10100001 2
b1001111 4
16
b11111000 <
b1100110 =
#2030000
0!
0,
06
#2035000
1!
b10010001 %
b10110111 (
b11111001 *
1,
b1010000 0
b10010001 2
b10100010 4
16
b10110111 <
b1010000 =
#2040000
0!
0,
06
#2045000
1!
b11111010 %
b10011111 (
b10111000 *
1,
b10100011 0
b11111010 2
b10010010 4
16
b10011111 <
b10100011 =
#2050000
0!
0,
06
#2055000
1!
b10111001 %
b1011100 (
b10100000 *
1,
b10010011 0
b10111001 2
b11111011 4
16
b1011100 <
b10010011 =
#2060000
0!
0,
06
#2065000
1!
b10100001 %
b1011011 (
b1011101 *
1,
b11111100 0
b10100001 2
b10111010 4
16
b1011011 <
b11111100 =
#2070000
0!
0,
06
#2075000
1!
b1011110 %
b10001001 (
b1011100 *
1,
b10111011 0
b1011110 2
b10100010 4
16
b10001001 <
b10111011 =
#2080000
0!
0,
06
#2085000
1!
b1011101 %
b1001001 (
b10001010 *
1,
b10100011 0
b1011101 2
b1011111 4
16
b1001001 <
b10100011 =
#2090000
0!
0,
06
#2095000
1!
b10001011 %
b11010000 (
b1001010 *
1,
b1100000 0
b10001011 2
b1011110 4
16
b11010000 <
b1100000 =
#2100000
0!
0,
06
17
19
1;
#2105000
1!
b1001011 %
b10010110 (
b11010001 *
1,
b1011111 0
b1001011 2
b10001100 4
16
b10010110 <
b1011111 =
#2110000
0!
0,
06
#2115000
1!
b11010010 %
b1100 (
b10010111 *
1,
b10001101 0
b11010010 2
b1001100 4
16
b1100 <
b10001101 =
#2120000
0!
0,
06
#2125000
1!
b10011000 %
b11000010 (
b1101 *
1,
b1001101 0
b10011000 2
b11010011 4
16
b11000010 <
b1001101 =
#2130000
0!
0,
06
#2135000
1!
b1110 %
b11001000 (
b11000011 *
1,
b11010100 0
b1110 2
b10011001 4
16
b11001000 <
b11010100 =
#2140000
0!
0,
06
#2145000
1!
b11000100 %
b1110111 (
b11001001 *
1,
b10011010 0
b11000100 2
b1111 4
16
b1110111 <
b10011010 =
#2150000
0!
0,
06
#2155000
1!
b11001010 %
b111101 (
b1111000 *
1,
b10000 0
b11001010 2
b11000101 4
16
b111101 <
b10000 =
#2160000
0!
0,
06
#2165000
1!
b1111001 %
b10010 (
b111110 *
1,
b11000110 0
b1111001 2
b11001011 4
16
b10010 <
b11000110 =
#2170000
0!
0,
06
#2175000
1!
b111111 %
b1111110 (
b10011 *
1,
b11001100 0
b111111 2
b1111010 4
16
b1111110 <
b11001100 =
#2180000
0!
0,
06
#2185000
1!
b10100 %
b1101101 (
b1111111 *
1,
b1111011 0
b10100 2
b1000000 4
16
b1101101 <
b1111011 =
#2190000
0!
0,
06
#2195000
1!
b10000000 %
b111001 (
b1101110 *
1,
b1000001 0
b10000000 2
b10101 4
16
b111001 <
b1000001 =
#2200000
0!
0,
06
07
#2205000
1!
b1101111 %
b11111 (
b111010 *
1,
b10110 0
b1101111 2
b10000001 4
16
b11111 <
b10110 =
#2210000
0!
0,
06
#2215000
1!
b111011 %
b11010011 (
b100000 *
1,
b10000010 0
b111011 2
b1110000 4
16
b11010011 <
b10000010 =
#2220000
0!
0,
06
#2225000
1!
b100001 %
b10000101 (
b11010100 *
1,
b1110001 0
b100001 2
b111100 4
16
b10000101 <
b1110001 =
#2230000
0!
0,
06
#2235000
1!
b11010101 %
b1111000 (
b10000110 *
1,
b111101 0
b11010101 2
b100010 4
16
b1111000 <
b111101 =
#2240000
0!
0,
06
#2245000
1!
b10000111 %
b1011011 (
b1111001 *
1,
b100011 0
b10000111 2
b11010110 4
16
b1011011 <
b100011 =
#2250000
0!
0,
06
#2255000
1!
b1111010 %
b1001001 (
b1011100 *
1,
b11010111 0
b1111010 2
b10001000 4
16
b1001001 <
b11010111 =
#2260000
0!
0,
06
#2265000
1!
b1011101 %
b111111 (
b1001010 *
1,
b10001001 0
b1011101 2
b1111011 4
16
b111111 <
b10001001 =
#2270000
0!
0,
06
#2275000
1!
b1001011 %
b101010 (
b1000000 *
1,
b1111100 0
b1001011 2
b1011110 4
16
b101010 <
b1111100 =
#2280000
0!
0,
06
#2285000
1!
b1000001 %
b1011000 (
b101011 *
1,
b1011111 0
b1000001 2
b1001100 4
16
b1011000 <
b1011111 =
#2290000
0!
0,
06
#2295000
1!
b101100 %
b10000110 (
b1011001 *
1,
b1001101 0
b101100 2
b1000010 4
16
b10000110 <
b1001101 =
#2300000
0!
0#
0&
0'
0,
0.
06
17
09
0;
#2305000
1!
b1011010 %
0)
b10000111 *
1,
b1000011 0
b1011010 2
b101101 4
16
b10000110 <
b1000011 =
#2310000
0!
0,
06
#2315000
1!
0$
b10001000 %
1&
1,
b101110 0
01
b10001000 2
b1011011 4
16
b10000110 <
b101110 =
#2320000
0!
0,
06
#2325000
1!
1,
b1011100 0
03
b10001001 4
16
b10000110 <
b1011100 =
#2330000
0!
0,
06
#2335000
1!
1#
1,
0/
b10001010 0
16
0:
b10000110 <
b10001010 =
#2340000
0!
0,
06
#2345000
1!
1,
16
b10000110 <
#2350000
0!
0,
06
#2355000
1!
1,
16
b10000110 <
#2360000
0!
0,
06
#2365000
1!
1,
16
b10000110 <
#2370000
0!
0,
06
#2375000
1!
1,
16
b10000110 <
#2380000
0!
0,
06
#2385000
1!
1,
16
b10000110 <
#2390000
0!
0,
06
#2395000
1!
1,
16
b10000110 <
#2400000
0!
0,
06
07
#2405000
1!
1,
16
b10000110 <
#2410000
0!
0,
06
#2415000
1!
1,
16
b10000110 <
#2420000
0!
0,
06
#2425000
1!
1,
16
b10000110 <
#2430000
0!
0,
06
#2435000
1!
1,
16
b10000110 <
#2440000
0!
0,
06
#2445000
1!
1,
16
b10000110 <
#2450000
0!
0,
06
#2455000
1!
1,
16
b10000110 <
#2460000
0!
0,
06
#2465000
1!
1,
16
b10000110 <
#2470000
0!
0,
06
#2475000
1!
1,
16
b10000110 <
#2480000
0!
0,
06
#2485000
1!
1,
16
b10000110 <
#2490000
0!
0,
06
#2495000
1!
1,
16
b10000110 <
#2500000
0!
0,
06
17
09
0;
#2505000
1!
1,
16
b10000110 <
#2510000
0!
0,
06
#2515000
1!
1,
16
b10000110 <
#2520000
0!
0,
06
#2525000
1!
1,
16
b10000110 <
#2530000
0!
0,
06
#2535000
1!
1,
16
b10000110 <
#2540000
0!
0,
06
#2545000
1!
1,
16
b10000110 <
#2550000
0!
0,
06
#2555000
1!
1,
16
b10000110 <
#2560000
0!
0,
06
#2565000
1!
1,
16
b10000110 <
#2570000
0!
0,
06
#2575000
1!
1,
16
b10000110 <
#2580000
0!
0,
06
#2585000
1!
1,
16
b10000110 <
#2590000
0!
0,
06
#2595000
1!
1,
16
b10000110 <
#2600000
0!
0,
06
07
#2605000
1!
1,
16
b10000110 <
#2610000
0!
0,
06
#2615000
1!
1,
16
b10000110 <
#2620000
0!
0,
06
#2625000
1!
1,
16
b10000110 <
#2630000
0!
0,
06
#2635000
1!
1,
16
b10000110 <
#2640000
0!
0,
06
#2645000
1!
1,
16
b10000110 <
#2650000
0!
0,
06
#2655000
1!
1,
16
b10000110 <
#2660000
0!
0,
06
#2665000
1!
1,
16
b10000110 <
#2670000
0!
0,
06
#2675000
1!
1,
16
b10000110 <
#2680000
0!
0,
06
#2685000
1!
1,
16
b10000110 <
#2690000
0!
0,
06
#2695000
1!
1,
16
b10000110 <
#2700000
0!
1#
1'
0,
1.
06
17
19
1;
#2705000
1!
b101111 (
1)
1,
16
b101111 <
#2710000
0!
0,
06
#2715000
1!
1$
b10110011 (
b110000 *
1,
11
16
b10110011 <
#2720000
0!
0,
06
#2725000
1!
b110001 %
b1011111 (
b10110100 *
1,
b110001 2
13
16
b1011111 <
#2730000
0!
0,
06
#2735000
1!
1#
b10110101 %
b1000100 (
b1100000 *
1,
1/
b10110101 2
b110010 4
16
1:
b1000100 <
#2740000
0!
0,
06
#2745000
1!
b1100001 %
b11110111 (
b1000101 *
1,
b110011 0
b1100001 2
b10110110 4
16
b11110111 <
b110011 =
#2750000
0!
0,
06
#2755000
1!
b1000110 %
b11001011 (
b11111000 *
1,
b10110111 0
b1000110 2
b1100010 4
16
b11001011 <
b10110111 =
#2760000
0!
0,
06
#2765000
1!
b11111001 %
b11100110 (
b11001100 *
1,
b1100011 0
b11111001 2
b1000111 4
16
b11100110 <
b1100011 =
#2770000
0!
0,
06
#2775000
1!
b11001101 %
b1011010 (
b11100111 *
1,
b1001000 0
b11001101 2
b11111010 4
16
b1011010 <
b1001000 =
#2780000
0!
0,
06
#2785000
1!
b11101000 %
b101001 (
b1011011 *
1,
b11111011 0
b11101000 2
b11001110 4
16
b101001 <
b11111011 =
#2790000
0!
0,
06
#2795000
1!
b1011100 %
b11101101 (
b101010 *
1,
b11001111 0
b1011100 2
b11101001 4
16
b11101101 <
b11001111 =
#2800000
0!
0,
06
07
#2805000
1!
b101011 %
b11011010 (
b11101110 *
1,
b11101010 0
b101011 2
b1011101 4
16
b11011010 <
b11101010 =
#2810000
0!
0,
06
#2815000
1!
b11101111 %
b1100101 (
b11011011 *
1,
b1011110 0
b11101111 2
b101100 4
16
b1100101 <
b1011110 =
#2820000
0!
0,
06
#2825000
1!
b11011100 %
b10110101 (
b1100110 *
1,
b101101 0
b11011100 2
b11110000 4
16
b10110101 <
b101101 =
#2830000
0!
0,
06
#2835000
1!
b1100111 %
b11011111 (
b10110110 *
1,
b11110001 0
b1100111 2
b11011101 4
16
b11011111 <
b11110001 =
#2840000
0!
0,
06
#2845000
1!
b10110111 %
b1111001 (
b11100000 *
1,
b11011110 0
b10110111 2
b1101000 4
16
b1111001 <
b11011110 =
#2850000
0!
0,
06
