vcd/axi_module.vcd
$date
   Thu Nov 17 17:28:00 2022
$end
$version
  2020.2
$end
$timescale
  1ps
$end
$scope module tb $end
$var reg 1 2 aclk $end
$var reg 1 3 slow_clk $end
$var reg 1 4 areset $end
$var reg 1 5 up_valid $end
$var wire 1 & up_ready $end
$var wire 1 # down_ready $end
$var wire 1 / down_valid $end
$var wire 1 6 last_valid $end
$var reg 1 7 last_ready $end
$var reg 8 8 up_data [7:0] $end
$var wire 8 0 down_data [7:0] $end
$var wire 8 9 last_data [7:0] $end
$var parameter 32 : DWIDTH [31:0] $end
$scope module master $end
$var wire 1 ! aclk_i $end
$var wire 1 " areset_i $end
$var wire 1 # ready_i $end
$var reg 1 $ valid_o $end
$var reg 8 % data_o [7:0] $end
$var wire 1 & ready_o $end
$var wire 1 ' valid_i $end
$var wire 8 ( data_i [7:0] $end
$var parameter 32 ) DWIDTH [31:0] $end
$upscope $end
$scope module slave $end
$var wire 1 * aclk_i $end
$var wire 1 + areset_i $end
$var wire 1 , ready_i $end
$var reg 1 - valid_o $end
$var reg 8 . data_o [7:0] $end
$var wire 1 # ready_o $end
$var wire 1 / valid_i $end
$var wire 8 0 data_i [7:0] $end
$var parameter 32 1 DWIDTH [31:0] $end
$upscope $end
$upscope $end
$enddefinitions $end
#0
$dumpvars
0!
1"
x#
x$
bx %
x&
0'
b0 (
b1000 )
0*
1+
0,
x-
bx .
x/
bx 0
b1000 1
02
03
14
05
x6
07
b0 8
bx 9
b1000 :
$end
#5000
1!
1#
0$
b0 %
1&
1*
0-
b0 .
0/
b0 0
12
06
b0 8
b0 9
#10000
0!
0*
02
#15000
1!
1*
12
b0 8
#20000
0!
0*
02
#25000
1!
1*
12
b0 8
#30000
0!
0*
02
#35000
1!
1*
12
b0 8
#40000
0!
0*
02
#45000
1!
1*
12
b0 8
#50000
0!
0*
02
#55000
1!
1*
12
b0 8
#60000
0!
0*
02
#65000
1!
1*
12
b0 8
#70000
0!
0*
02
#75000
1!
1*
12
b0 8
#80000
0!
0*
02
#85000
1!
1*
12
b0 8
#90000
0!
0*
02
#95000
1!
1*
12
b0 8
#100000
0!
0"
1#
0*
0+
1,
02
13
04
05
17
#105000
1!
b1 %
1*
b1 .
b1 0
12
b0 8
b1 9
#110000
0!
0*
02
#115000
1!
1*
b10 .
12
b0 8
b10 9
#120000
0!
0*
02
#125000
1!
1*
12
b0 8
#130000
0!
0*
02
#135000
1!
1*
12
b0 8
#140000
0!
0*
02
#145000
1!
1*
12
b0 8
#150000
0!
0*
02
#155000
1!
1*
12
b0 8
#160000
0!
0*
02
#165000
1!
1*
12
b0 8
#170000
0!
0*
02
#175000
1!
1*
12
b0 8
#180000
0!
0*
02
#185000
1!
1*
12
b0 8
#190000
0!
0*
02
#195000
1!
1*
12
b0 8
#200000
0!
0*
02
03
#205000
1!
1*
12
b0 8
#210000
0!
0*
02
#215000
1!
1*
12
b0 8
#220000
0!
0*
02
#225000
1!
1*
12
b0 8
#230000
0!
0*
02
#235000
1!
1*
12
b0 8
#240000
0!
0*
02
#245000
1!
1*
12
b0 8
#250000
0!
0*
02
#255000
1!
1*
12
b0 8
#260000
0!
0*
02
#265000
1!
1*
12
b0 8
#270000
0!
0*
02
#275000
1!
1*
12
b0 8
#280000
0!
0*
02
#285000
1!
1*
12
b0 8
#290000
0!
0*
02
#295000
1!
1*
12
b0 8
#300000
0!
1'
0*
02
13
15
17
#305000
1!
1$
b1101 (
1*
1/
12
b1101 8
#310000
0!
0*
02
#315000
1!
1#
b1110 %
b10001101 (
1*
1-
b1110 0
12
16
b10001101 8
#320000
0!
0*
02
#325000
1!
b10001110 %
b1100101 (
1*
b1111 .
b10001110 0
12
b1100101 8
b1111 9
#330000
0!
0*
02
#335000
1!
b1100110 %
b10010 (
1*
b10001111 .
b1100110 0
12
b10010 8
b10001111 9
#340000
0!
0*
02
#345000
1!
b10011 %
b1 (
1*
b1100111 .
b10011 0
12
b1 8
b1100111 9
#350000
0!
0*
02
#355000
1!
b10 %
b1101 (
1*
b10100 .
b10 0
12
b1101 8
b10100 9
#360000
0!
0*
02
#365000
1!
b1110 %
b1110110 (
1*
b11 .
b1110 0
12
b1110110 8
b11 9
#370000
0!
0*
02
#375000
1!
b1110111 %
b111101 (
1*
b1111 .
b1110111 0
12
b111101 8
b1111 9
#380000
0!
0*
02
#385000
1!
b111110 %
b11101101 (
1*
b1111000 .
b111110 0
12
b11101101 8
b1111000 9
#390000
0!
0*
02
#395000
1!
b11101110 %
b10001100 (
1*
b111111 .
b11101110 0
12
b10001100 8
b111111 9
#400000
0!
0*
02
03
#405000
1!
b10001101 %
b11111001 (
1*
b11101111 .
b10001101 0
12
b11111001 8
b11101111 9
#410000
0!
0*
02
#415000
1!
b11111010 %
b11000110 (
1*
b10001110 .
b11111010 0
12
b11000110 8
b10001110 9
#420000
0!
0*
02
#425000
1!
b11000111 %
b11000101 (
1*
b11111011 .
b11000111 0
12
b11000101 8
b11111011 9
#430000
0!
0*
02
#435000
1!
b11000110 %
b10101010 (
1*
b11001000 .
b11000110 0
12
b10101010 8
b11001000 9
#440000
0!
0*
02
#445000
1!
b10101011 %
b11100101 (
1*
b11000111 .
b10101011 0
12
b11100101 8
b11000111 9
#450000
0!
0*
02
#455000
1!
b11100110 %
b1110111 (
1*
b10101100 .
b11100110 0
12
b1110111 8
b10101100 9
#460000
0!
0*
02
#465000
1!
b1111000 %
b10010 (
1*
b11100111 .
b1111000 0
12
b10010 8
b11100111 9
#470000
0!
0*
02
#475000
1!
b10011 %
b10001111 (
1*
b1111001 .
b10011 0
12
b10001111 8
b1111001 9
#480000
0!
0*
02
#485000
1!
b10010000 %
b11110010 (
1*
b10100 .
b10010000 0
12
b11110010 8
b10100 9
#490000
0!
0*
02
#495000
1!
b11110011 %
b11001110 (
1*
b10010001 .
b11110011 0
12
b11001110 8
b10010001 9
#500000
0!
0'
0*
02
13
05
17
#505000
1!
0$
b11001111 %
1*
b11110100 .
0/
b11001111 0
12
b11001110 8
b11110100 9
#510000
0!
0*
02
#515000
1!
1#
1*
0-
b11010000 .
12
06
b11001110 8
b11010000 9
#520000
0!
0*
02
#525000
1!
1*
12
b11001110 8
#530000
0!
0*
02
#535000
1!
1*
12
b11001110 8
#540000
0!
0*
02
#545000
1!
1*
12
b11001110 8
#550000
0!
0*
02
#555000
1!
1*
12
b11001110 8
#560000
0!
0*
02
#565000
1!
1*
12
b11001110 8
#570000
0!
0*
02
#575000
1!
1*
12
b11001110 8
#580000
0!
0*
02
#585000
1!
1*
12
b11001110 8
#590000
0!
0*
02
#595000
1!
1*
12
b11001110 8
#600000
0!
0*
02
03
#605000
1!
1*
12
b11001110 8
#610000
0!
0*
02
#615000
1!
1*
12
b11001110 8
#620000
0!
0*
02
#625000
1!
1*
12
b11001110 8
#630000
0!
0*
02
#635000
1!
1*
12
b11001110 8
#640000
0!
0*
02
#645000
1!
1*
12
b11001110 8
#650000
0!
0*
02
#655000
1!
1*
12
b11001110 8
#660000
0!
0*
02
#665000
1!
1*
12
b11001110 8
#670000
0!
0*
02
#675000
1!
1*
12
b11001110 8
#680000
0!
0*
02
#685000
1!
1*
12
b11001110 8
#690000
0!
0*
02
#695000
1!
1*
12
b11001110 8
#700000
0!
0*
02
13
05
17
#705000
1!
1*
12
b11001110 8
#710000
0!
0*
02
#715000
1!
1*
12
b11001110 8
#720000
0!
0*
02
#725000
1!
1*
12
b11001110 8
#730000
0!
0*
02
#735000
1!
1*
12
b11001110 8
#740000
0!
0*
02
#745000
1!
1*
12
b11001110 8
#750000
0!
0*
02
#755000
1!
1*
12
b11001110 8
#760000
0!
0*
02
#765000
1!
1*
12
b11001110 8
#770000
0!
0*
02
#775000
1!
1*
12
b11001110 8
#780000
0!
0*
02
#785000
1!
1*
12
b11001110 8
#790000
0!
0*
02
#795000
1!
1*
12
b11001110 8
#800000
0!
0*
02
03
#805000
1!
1*
12
b11001110 8
#810000
0!
0*
02
#815000
1!
1*
12
b11001110 8
#820000
0!
0*
02
#825000
1!
1*
12
b11001110 8
#830000
0!
0*
02
#835000
1!
1*
12
b11001110 8
#840000
0!
0*
02
#845000
1!
1*
12
b11001110 8
#850000
0!
0*
02
#855000
1!
1*
12
b11001110 8
#860000
0!
0*
02
#865000
1!
1*
12
b11001110 8
#870000
0!
0*
02
#875000
1!
1*
12
b11001110 8
#880000
0!
0*
02
#885000
1!
1*
12
b11001110 8
#890000
0!
0*
02
#895000
1!
1*
12
b11001110 8
#900000
0!
1'
0*
02
13
15
17
#905000
1!
1$
b1100011 (
1*
1/
12
b1100011 8
#910000
0!
0*
02
#915000
1!
1#
b1100100 %
b1010 (
1*
1-
b1100100 0
12
16
b1010 8
#920000
0!
0*
02
#925000
1!
b1011 %
b10000000 (
1*
b1100101 .
b1011 0
12
b10000000 8
b1100101 9
#930000
0!
0*
02
#935000
1!
b10000001 %
b100000 (
1*
b1100 .
b10000001 0
12
b100000 8
b1100 9
#940000
0!
0*
02
#945000
1!
b100001 %
b10101010 (
1*
b10000010 .
b100001 0
12
b10101010 8
b10000010 9
#950000
0!
0*
02
#955000
1!
b10101011 %
b10011101 (
1*
b100010 .
b10101011 0
12
b10011101 8
b100010 9
#960000
0!
0*
02
#965000
1!
b10011110 %
b10010110 (
1*
b10101100 .
b10011110 0
12
b10010110 8
b10101100 9
#970000
0!
0*
02
#975000
1!
b10010111 %
b10011 (
1*
b10011111 .
b10010111 0
12
b10011 8
b10011111 9
#980000
0!
0*
02
#985000
1!
b10100 %
b1101 (
1*
b10011000 .
b10100 0
12
b1101 8
b10011000 9
#990000
0!
0*
02
#995000
1!
b1110 %
b1010011 (
1*
b10101 .
b1110 0
12
b1010011 8
b10101 9
#1000000
0!
0*
02
03
#1005000
1!
b1010100 %
b1101011 (
1*
b1111 .
b1010100 0
12
b1101011 8
b1111 9
#1010000
0!
0*
02
#1015000
1!
b1101100 %
b11010101 (
1*
b1010101 .
b1101100 0
12
b11010101 8
b1010101 9
#1020000
0!
0*
02
#1025000
1!
b11010110 %
b10 (
1*
b1101101 .
b11010110 0
12
b10 8
b1101101 9
#1030000
0!
0*
02
#1035000
1!
b11 %
b10101110 (
1*
b11010111 .
b11 0
12
b10101110 8
b11010111 9
#1040000
0!
0*
02
#1045000
1!
b10101111 %
b11101 (
1*
b100 .
b10101111 0
12
b11101 8
b100 9
#1050000
0!
0*
02
#1055000
1!
b11110 %
b11001111 (
1*
b10110000 .
b11110 0
12
b11001111 8
b10110000 9
#1060000
0!
0*
02
#1065000
1!
b11010000 %
b100011 (
1*
b11111 .
b11010000 0
12
b100011 8
b11111 9
#1070000
0!
0*
02
#1075000
1!
b100100 %
b1010 (
1*
b11010001 .
b100100 0
12
b1010 8
b11010001 9
#1080000
0!
0*
02
#1085000
1!
b1011 %
b11001010 (
1*
b100101 .
b1011 0
12
b11001010 8
b100101 9
#1090000
0!
0*
02
#1095000
1!
b11001011 %
b111100 (
1*
b1100 .
b11001011 0
12
b111100 8
b1100 9
#1100000
0!
0#
0&
0'
0*
0,
02
13
05
07
#1105000
1!
0$
b111101 %
1&
1*
b11001100 .
0/
b111101 0
12
b111100 8
b11001100 9
#1110000
0!
0*
02
#1115000
1!
1#
1*
0-
b111110 .
12
06
b111100 8
b111110 9
#1120000
0!
0*
02
#1125000
1!
1*
12
b111100 8
#1130000
0!
0*
02
#1135000
1!
1*
12
b111100 8
#1140000
0!
0*
02
#1145000
1!
1*
12
b111100 8
#1150000
0!
0*
02
#1155000
1!
1*
12
b111100 8
#1160000
0!
0*
02
#1165000
1!
1*
12
b111100 8
#1170000
0!
0*
02
#1175000
1!
1*
12
b111100 8
#1180000
0!
0*
02
#1185000
1!
1*
12
b111100 8
#1190000
0!
0*
02
#1195000
1!
1*
12
b111100 8
#1200000
0!
0*
02
03
#1205000
1!
1*
12
b111100 8
#1210000
0!
0*
02
#1215000
1!
1*
12
b111100 8
#1220000
0!
0*
02
#1225000
1!
1*
12
b111100 8
#1230000
0!
0*
02
#1235000
1!
1*
12
b111100 8
#1240000
0!
0*
02
#1245000
1!
1*
12
b111100 8
#1250000
0!
0*
02
#1255000
1!
1*
12
b111100 8
#1260000
0!
0*
02
#1265000
1!
1*
12
b111100 8
#1270000
0!
0*
02
#1275000
1!
1*
12
b111100 8
#1280000
0!
0*
02
#1285000
1!
1*
12
b111100 8
#1290000
0!
0*
02
#1295000
1!
1*
12
b111100 8
#1300000
0!
1'
0*
02
13
15
07
#1305000
1!
1$
b1111000 (
1*
1/
12
b1111000 8
#1310000
0!
0*
02
#1315000
1!
0#
b1111001 %
0&
b10001001 (
1*
1-
b1111001 0
12
16
b10001001 8
#1320000
0!
0*
02
#1325000
1!
b10001010 %
1*
b1111010 .
b10001010 0
12
b10001001 8
b1111010 9
#1330000
0!
0*
02
#1335000
1!
1*
b10001011 .
12
b10001001 8
b10001011 9
#1340000
0!
0*
02
#1345000
1!
1*
12
b10001001 8
#1350000
0!
0*
02
#1355000
1!
1*
12
b10001001 8
#1360000
0!
0*
02
#1365000
1!
1*
12
b10001001 8
#1370000
0!
0*
02
#1375000
1!
1*
12
b10001001 8
#1380000
0!
0*
02
#1385000
1!
1*
12
b10001001 8
#1390000
0!
0*
02
#1395000
1!
1*
12
b10001001 8
#1400000
0!
0*
02
03
#1405000
1!
1*
12
b10001001 8
#1410000
0!
0*
02
#1415000
1!
1*
12
b10001001 8
#1420000
0!
0*
02
#1425000
1!
1*
12
b10001001 8
#1430000
0!
0*
02
#1435000
1!
1*
12
b10001001 8
#1440000
0!
0*
02
#1445000
1!
1*
12
b10001001 8
#1450000
0!
0*
02
#1455000
1!
1*
12
b10001001 8
#1460000
0!
0*
02
#1465000
1!
1*
12
b10001001 8
#1470000
0!
0*
02
#1475000
1!
1*
12
b10001001 8
#1480000
0!
0*
02
#1485000
1!
1*
12
b10001001 8
#1490000
0!
0*
02
#1495000
1!
1*
12
b10001001 8
#1500000
0!
0*
02
13
15
07
#1505000
1!
1*
12
b10001001 8
#1510000
0!
0*
02
#1515000
1!
1*
12
b10001001 8
#1520000
0!
0*
02
#1525000
1!
1*
12
b10001001 8
#1530000
0!
0*
02
#1535000
1!
1*
12
b10001001 8
#1540000
0!
0*
02
#1545000
1!
1*
12
b10001001 8
#1550000
0!
0*
02
#1555000
1!
1*
12
b10001001 8
#1560000
0!
0*
02
#1565000
1!
1*
12
b10001001 8
#1570000
0!
0*
02
#1575000
1!
1*
12
b10001001 8
#1580000
0!
0*
02
#1585000
1!
1*
12
b10001001 8
#1590000
0!
0*
02
#1595000
1!
1*
12
b10001001 8
#1600000
0!
0*
02
03
#1605000
1!
1*
12
b10001001 8
#1610000
0!
0*
02
#1615000
1!
1*
12
b10001001 8
#1620000
0!
0*
02
#1625000
1!
1*
12
b10001001 8
#1630000
0!
0*
02
#1635000
1!
1*
12
b10001001 8
#1640000
0!
0*
02
#1645000
1!
1*
12
b10001001 8
#1650000
0!
0*
02
#1655000
1!
1*
12
b10001001 8
#1660000
0!
0*
02
#1665000
1!
1*
12
b10001001 8
#1670000
0!
0*
02
#1675000
1!
1*
12
b10001001 8
#1680000
0!
0*
02
#1685000
1!
1*
12
b10001001 8
#1690000
0!
0*
02
#1695000
1!
1*
12
b10001001 8
#1700000
0!
0'
0*
02
13
05
07
#1705000
1!
0$
1&
1*
0/
12
b10001001 8
#1710000
0!
0*
02
#1715000
1!
1#
1*
0-
12
06
b10001001 8
#1720000
0!
0*
02
#1725000
1!
1*
12
b10001001 8
#1730000
0!
0*
02
#1735000
1!
1*
12
b10001001 8
#1740000
0!
0*
02
#1745000
1!
1*
12
b10001001 8
#1750000
0!
0*
02
#1755000
1!
1*
12
b10001001 8
#1760000
0!
0*
02
#1765000
1!
1*
12
b10001001 8
#1770000
0!
0*
02
#1775000
1!
1*
12
b10001001 8
#1780000
0!
0*
02
#1785000
1!
1*
12
b10001001 8
#1790000
0!
0*
02
#1795000
1!
1*
12
b10001001 8
#1800000
0!
0*
02
03
#1805000
1!
1*
12
b10001001 8
#1810000
0!
0*
02
#1815000
1!
1*
12
b10001001 8
#1820000
0!
0*
02
#1825000
1!
1*
12
b10001001 8
#1830000
0!
0*
02
#1835000
1!
1*
12
b10001001 8
#1840000
0!
0*
02
#1845000
1!
1*
12
b10001001 8
#1850000
0!
0*
02
#1855000
1!
1*
12
b10001001 8
#1860000
0!
0*
02
#1865000
1!
1*
12
b10001001 8
#1870000
0!
0*
02
#1875000
1!
1*
12
b10001001 8
#1880000
0!
0*
02
#1885000
1!
1*
12
b10001001 8
#1890000
0!
0*
02
#1895000
1!
1*
12
b10001001 8
#1900000
0!
0*
02
13
05
07
#1905000
1!
1*
12
b10001001 8
#1910000
0!
0*
02
#1915000
1!
1*
12
b10001001 8
#1920000
0!
0*
02
#1925000
1!
1*
12
b10001001 8
#1930000
0!
0*
02
#1935000
1!
1*
12
b10001001 8
#1940000
0!
0*
02
#1945000
1!
1*
12
b10001001 8
#1950000
0!
0*
02
#1955000
1!
1*
12
b10001001 8
#1960000
0!
0*
02
#1965000
1!
1*
12
b10001001 8
#1970000
0!
0*
02
#1975000
1!
1*
12
b10001001 8
#1980000
0!
0*
02
#1985000
1!
1*
12
b10001001 8
#1990000
0!
0*
02
#1995000
1!
1*
12
b10001001 8
#2000000
0!
0*
02
03
#2005000
1!
1*
12
b10001001 8
#2010000
0!
0*
02
#2015000
1!
1*
12
b10001001 8
#2020000
0!
0*
02
#2025000
1!
1*
12
b10001001 8
#2030000
0!
0*
02
#2035000
1!
1*
12
b10001001 8
#2040000
0!
0*
02
#2045000
1!
1*
12
b10001001 8
#2050000
0!
0*
02
#2055000
1!
1*
12
b10001001 8
#2060000
0!
0*
02
#2065000
1!
1*
12
b10001001 8
#2070000
0!
0*
02
#2075000
1!
1*
12
b10001001 8
#2080000
0!
0*
02
#2085000
1!
1*
12
b10001001 8
#2090000
0!
0*
02
#2095000
1!
1*
12
b10001001 8
#2100000
0!
1#
1'
0*
1,
02
13
15
17
#2105000
1!
1$
b10000101 (
1*
1/
12
b10000101 8
#2110000
0!
0*
02
#2115000
1!
1#
b10000110 %
b1001111 (
1*
1-
b10000110 0
12
16
b1001111 8
#2120000
0!
0*
02
#2125000
1!
b1010000 %
b111011 (
1*
b10000111 .
b1010000 0
12
b111011 8
b10000111 9
#2130000
0!
0*
02
#2135000
1!
b111100 %
b111010 (
1*
b1010001 .
b111100 0
12
b111010 8
b1010001 9
#2140000
0!
0*
02
#2145000
1!
b111011 %
b1111110 (
1*
b111101 .
b111011 0
12
b1111110 8
b111101 9
#2150000
0!
0*
02
#2155000
1!
b1111111 %
b10101 (
1*
b111100 .
b1111111 0
12
b10101 8
b111100 9
#2160000
0!
0*
02
#2165000
1!
b10110 %
b11110001 (
1*
b10000000 .
b10110 0
12
b11110001 8
b10000000 9
#2170000
0!
0*
02
#2175000
1!
b11110010 %
b11011001 (
1*
b10111 .
b11110010 0
12
b11011001 8
b10111 9
#2180000
0!
0*
02
#2185000
1!
b11011010 %
b1100010 (
1*
b11110011 .
b11011010 0
12
b1100010 8
b11110011 9
#2190000
0!
0*
02
#2195000
1!
b1100011 %
b1001100 (
1*
b11011011 .
b1100011 0
12
b1001100 8
b11011011 9
#2200000
0!
0*
02
03
#2205000
1!
b1001101 %
b10011111 (
1*
b1100100 .
b1001101 0
12
b10011111 8
b1100100 9
#2210000
0!
0*
02
#2215000
1!
b10100000 %
b10001111 (
1*
b1001110 .
b10100000 0
12
b10001111 8
b1001110 9
#2220000
0!
0*
02
#2225000
1!
b10010000 %
b11111000 (
1*
b10100001 .
b10010000 0
12
b11111000 8
b10100001 9
#2230000
0!
0*
02
#2235000
1!
b11111001 %
b10110111 (
1*
b10010001 .
b11111001 0
12
b10110111 8
b10010001 9
#2240000
0!
0*
02
#2245000
1!
b10111000 %
b10011111 (
1*
b11111010 .
b10111000 0
12
b10011111 8
b11111010 9
#2250000
0!
0*
02
#2255000
1!
b10100000 %
b1011100 (
1*
b10111001 .
b10100000 0
12
b1011100 8
b10111001 9
#2260000
0!
0*
02
#2265000
1!
b1011101 %
b1011011 (
1*
b10100001 .
b1011101 0
12
b1011011 8
b10100001 9
#2270000
0!
0*
02
#2275000
1!
b1011100 %
b10001001 (
1*
b1011110 .
b1011100 0
12
b10001001 8
b1011110 9
#2280000
0!
0*
02
#2285000
1!
b10001010 %
b1001001 (
1*
b1011101 .
b10001010 0
12
b1001001 8
b1011101 9
#2290000
0!
0*
02
#2295000
1!
b1001010 %
b11010000 (
1*
b10001011 .
b1001010 0
12
b11010000 8
b10001011 9
#2300000
0!
0*
02
13
15
17
#2305000
1!
b11010001 %
b10010110 (
1*
b1001011 .
b11010001 0
12
b10010110 8
b1001011 9
#2310000
0!
0*
02
#2315000
1!
b10010111 %
b1100 (
1*
b11010010 .
b10010111 0
12
b1100 8
b11010010 9
#2320000
0!
0*
02
#2325000
1!
b1101 %
b11000010 (
1*
b10011000 .
b1101 0
12
b11000010 8
b10011000 9
#2330000
0!
0*
02
#2335000
1!
b11000011 %
b11001000 (
1*
b1110 .
b11000011 0
12
b11001000 8
b1110 9
#2340000
0!
0*
02
#2345000
1!
b11001001 %
b1110111 (
1*
b11000100 .
b11001001 0
12
b1110111 8
b11000100 9
#2350000
0!
0*
02
#2355000
1!
b1111000 %
b111101 (
1*
b11001010 .
b1111000 0
12
b111101 8
b11001010 9
#2360000
0!
0*
02
#2365000
1!
b111110 %
b10010 (
1*
b1111001 .
b111110 0
12
b10010 8
b1111001 9
#2370000
0!
0*
02
#2375000
1!
b10011 %
b1111110 (
1*
b111111 .
b10011 0
12
b1111110 8
b111111 9
#2380000
0!
0*
02
#2385000
1!
b1111111 %
b1101101 (
1*
b10100 .
b1111111 0
12
b1101101 8
b10100 9
#2390000
0!
0*
02
#2395000
1!
b1101110 %
b111001 (
1*
b10000000 .
b1101110 0
12
b111001 8
b10000000 9
#2400000
0!
0*
02
03
#2405000
1!
b111010 %
b11111 (
1*
b1101111 .
b111010 0
12
b11111 8
b1101111 9
#2410000
0!
0*
02
#2415000
1!
b100000 %
b11010011 (
1*
b111011 .
b100000 0
12
b11010011 8
b111011 9
#2420000
0!
0*
02
#2425000
1!
b11010100 %
b10000101 (
1*
b100001 .
b11010100 0
12
b10000101 8
b100001 9
#2430000
0!
0*
02
#2435000
1!
b10000110 %
b1111000 (
1*
b11010101 .
b10000110 0
12
b1111000 8
b11010101 9
#2440000
0!
0*
02
#2445000
1!
b1111001 %
b1011011 (
1*
b10000111 .
b1111001 0
12
b1011011 8
b10000111 9
#2450000
0!
0*
02
#2455000
1!
b1011100 %
b1001001 (
1*
b1111010 .
b1011100 0
12
b1001001 8
b1111010 9
#2460000
0!
0*
02
#2465000
1!
b1001010 %
b111111 (
1*
b1011101 .
b1001010 0
12
b111111 8
b1011101 9
#2470000
0!
0*
02
#2475000
1!
b1000000 %
b101010 (
1*
b1001011 .
b1000000 0
12
b101010 8
b1001011 9
#2480000
0!
0*
02
#2485000
1!
b101011 %
b1011000 (
1*
b1000001 .
b101011 0
12
b1011000 8
b1000001 9
#2490000
0!
0*
02
#2495000
1!
b1011001 %
b10000110 (
1*
b101100 .
b1011001 0
12
b10000110 8
b101100 9
#2500000
0!
0#
0&
0'
0*
0,
02
13
05
07
#2505000
1!
0$
b10000111 %
1&
1*
b1011010 .
0/
b10000111 0
12
b10000110 8
b1011010 9
#2510000
0!
0*
02
#2515000
1!
1#
1*
0-
b10001000 .
12
06
b10000110 8
b10001000 9
#2520000
0!
0*
02
#2525000
1!
1*
12
b10000110 8
#2530000
0!
0*
02
#2535000
1!
1*
12
b10000110 8
#2540000
0!
0*
02
#2545000
1!
1*
12
b10000110 8
#2550000
0!
0*
02
#2555000
1!
1*
12
b10000110 8
#2560000
0!
0*
02
#2565000
1!
1*
12
b10000110 8
#2570000
0!
0*
02
#2575000
1!
1*
12
b10000110 8
#2580000
0!
0*
02
#2585000
1!
1*
12
b10000110 8
#2590000
0!
0*
02
#2595000
1!
1*
12
b10000110 8
#2600000
0!
0*
02
03
#2605000
1!
1*
12
b10000110 8
#2610000
0!
0*
02
#2615000
1!
1*
12
b10000110 8
#2620000
0!
0*
02
#2625000
1!
1*
12
b10000110 8
#2630000
0!
0*
02
#2635000
1!
1*
12
b10000110 8
#2640000
0!
0*
02
#2645000
1!
1*
12
b10000110 8
#2650000
0!
0*
02
#2655000
1!
1*
12
b10000110 8
#2660000
0!
0*
02
#2665000
1!
1*
12
b10000110 8
#2670000
0!
0*
02
#2675000
1!
1*
12
b10000110 8
#2680000
0!
0*
02
#2685000
1!
1*
12
b10000110 8
#2690000
0!
0*
02
#2695000
1!
1*
12
b10000110 8
#2700000
0!
0*
02
13
05
07
#2705000
1!
1*
12
b10000110 8
#2710000
0!
0*
02
#2715000
1!
1*
12
b10000110 8
#2720000
0!
0*
02
#2725000
1!
1*
12
b10000110 8
#2730000
0!
0*
02
#2735000
1!
1*
12
b10000110 8
#2740000
0!
0*
02
#2745000
1!
1*
12
b10000110 8
#2750000
0!
0*
02
#2755000
1!
1*
12
b10000110 8
#2760000
0!
0*
02
#2765000
1!
1*
12
b10000110 8
#2770000
0!
0*
02
#2775000
1!
1*
12
b10000110 8
#2780000
0!
0*
02
#2785000
1!
1*
12
b10000110 8
#2790000
0!
0*
02
#2795000
1!
1*
12
b10000110 8
#2800000
0!
0*
02
03
#2805000
1!
1*
12
b10000110 8
#2810000
0!
0*
02
#2815000
1!
1*
12
b10000110 8
#2820000
0!
0*
02
#2825000
1!
1*
12
b10000110 8
#2830000
0!
0*
02
#2835000
1!
1*
12
b10000110 8
#2840000
0!
0*
02
#2845000
1!
1*
12
b10000110 8
#2850000
0!
0*
02
#2855000
1!
1*
12
b10000110 8
#2860000
0!
0*
02
#2865000
1!
1*
12
b10000110 8
#2870000
0!
0*
02
#2875000
1!
1*
12
b10000110 8
#2880000
0!
0*
02
#2885000
1!
1*
12
b10000110 8
#2890000
0!
0*
02
#2895000
1!
1*
12
b10000110 8
#2900000
0!
1#
1'
0*
1,
02
13
15
17
#2905000
1!
1$
b101111 (
1*
1/
12
b101111 8
#2910000
0!
0*
02
#2915000
1!
1#
b110000 %
b10110011 (
1*
1-
b110000 0
12
16
b10110011 8
#2920000
0!
0*
02
#2925000
1!
b10110100 %
b1011111 (
1*
b110001 .
b10110100 0
12
b1011111 8
b110001 9
#2930000
0!
0*
02
#2935000
1!
b1100000 %
b1000100 (
1*
b10110101 .
b1100000 0
12
b1000100 8
b10110101 9
#2940000
0!
0*
02
#2945000
1!
b1000101 %
b11110111 (
1*
b1100001 .
b1000101 0
12
b11110111 8
b1100001 9
#2950000
0!
0*
02
#2955000
1!
b11111000 %
b11001011 (
1*
b1000110 .
b11111000 0
12
b11001011 8
b1000110 9
#2960000
0!
0*
02
#2965000
1!
b11001100 %
b11100110 (
1*
b11111001 .
b11001100 0
12
b11100110 8
b11111001 9
#2970000
0!
0*
02
#2975000
1!
b11100111 %
b1011010 (
1*
b11001101 .
b11100111 0
12
b1011010 8
b11001101 9
#2980000
0!
0*
02
#2985000
1!
b1011011 %
b101001 (
1*
b11101000 .
b1011011 0
12
b101001 8
b11101000 9
#2990000
0!
0*
02
#2995000
1!
b101010 %
b11101101 (
1*
b1011100 .
b101010 0
12
b11101101 8
b1011100 9
#3000000
0!
0*
02
03
#3005000
1!
b11101110 %
b11011010 (
1*
b101011 .
b11101110 0
12
b11011010 8
b101011 9
#3010000
0!
0*
02
#3015000
1!
b11011011 %
b1100101 (
1*
b11101111 .
b11011011 0
12
b1100101 8
b11101111 9
#3020000
0!
0*
02
#3025000
1!
b1100110 %
b10110101 (
1*
b11011100 .
b1100110 0
12
b10110101 8
b11011100 9
#3030000
0!
0*
02
#3035000
1!
b10110110 %
b11011111 (
1*
b1100111 .
b10110110 0
12
b11011111 8
b1100111 9
#3040000
0!
0*
02
#3045000
1!
b11100000 %
b1111001 (
1*
b10110111 .
b11100000 0
12
b1111001 8
b10110111 9
#3050000
0!
0*
02
#3055000
1!
b1111010 %
b1000100 (
1*
b11100001 .
b1111010 0
12
b1000100 8
b11100001 9
#3060000
0!
0*
02
#3065000
1!
b1000101 %
b11010000 (
1*
b1111011 .
b1000101 0
12
b11010000 8
b1111011 9
#3070000
0!
0*
02
#3075000
1!
b11010001 %
b101010 (
1*
b1000110 .
b11010001 0
12
b101010 8
b1000110 9
#3080000
0!
0*
02
#3085000
1!
b101011 %
b10101011 (
1*
b11010010 .
b101011 0
12
b10101011 8
b11010010 9
#3090000
0!
0*
02
#3095000
1!
b10101100 %
b1110 (
1*
b101100 .
b10101100 0
12
b1110 8
b101100 9
#3100000
0!
0#
0&
0'
0*
0,
02
13
05
07
#3105000
1!
0$
b1111 %
1&
1*
b10101101 .
0/
b1111 0
12
b1110 8
b10101101 9
#3110000
0!
0*
02
#3115000
1!
1#
1*
0-
b10000 .
12
06
b1110 8
b10000 9
#3120000
0!
0*
02
#3125000
1!
1*
12
b1110 8
#3130000
0!
0*
02
#3135000
1!
1*
12
b1110 8
#3140000
0!
0*
02
#3145000
1!
1*
12
b1110 8
#3150000
0!
0*
02
#3155000
1!
1*
12
b1110 8
#3160000
0!
0*
02
#3165000
1!
1*
12
b1110 8
#3170000
0!
0*
02
#3175000
1!
1*
12
b1110 8
#3180000
0!
0*
02
#3185000
1!
1*
12
b1110 8
#3190000
0!
0*
02
#3195000
1!
1*
12
b1110 8
#3200000
0!
0*
02
03
#3205000
1!
1*
12
b1110 8
#3210000
0!
0*
02
#3215000
1!
1*
12
b1110 8
#3220000
0!
0*
02
#3225000
1!
1*
12
b1110 8
#3230000
0!
0*
02
#3235000
1!
1*
12
b1110 8
#3240000
0!
0*
02
#3245000
1!
1*
12
b1110 8
