vcd/axi_module_valid.vcd
$date
   Sun Nov 13 20:03:28 2022
$end
$version
  2020.2
$end
$timescale
  1ps
$end
$scope module tb $end
$var reg 1 < aclk $end
$var reg 1 = areset $end
$var wire 1 & up_ready $end
$var wire 1 ' up_valid $end
$var wire 1 # down_ready $end
$var wire 1 4 down_valid $end
$var wire 1 1 last_ready $end
$var wire 1 > last_valid $end
$var reg 8 ? up_data [7:0] $end
$var wire 8 5 down_data [7:0] $end
$var wire 8 @ last_data [7:0] $end
$var parameter 32 A DWIDTH [31:0] $end
$scope module master $end
$var wire 1 ! aclk_i $end
$var wire 1 " areset_i $end
$var wire 1 # ready_i $end
$var reg 1 $ valid_o $end
$var reg 8 % data_o [7:0] $end
$var wire 1 & ready_o $end
$var wire 1 ' valid_i $end
$var wire 8 ( data_i [7:0] $end
$var wire 1 ) input_trig $end
$var wire 1 * output_trig $end
$var reg 1 + valid_i_reg $end
$var reg 1 , ready_o_reg $end
$var reg 8 - data_i_reg [7:0] $end
$var parameter 32 . DWIDTH [31:0] $end
$upscope $end
$scope module slave $end
$var wire 1 / aclk_i $end
$var wire 1 0 areset_i $end
$var wire 1 1 ready_i $end
$var reg 1 2 valid_o $end
$var reg 8 3 data_o [7:0] $end
$var wire 1 # ready_o $end
$var wire 1 4 valid_i $end
$var wire 8 5 data_i [7:0] $end
$var wire 1 6 input_trig $end
$var wire 1 7 output_trig $end
$var reg 1 8 valid_i_reg $end
$var reg 1 9 ready_o_reg $end
$var reg 8 : data_i_reg [7:0] $end
$var parameter 32 ; DWIDTH [31:0] $end
$upscope $end
$upscope $end
$enddefinitions $end
#0
$dumpvars
0!
0"
1#
0$
b0 %
1&
z'
b0 (
0)
0*
0+
0,
bx -
b1000 .
0/
00
z1
02
b0 3
04
b0 5
06
07
08
09
bx :
b1000 ;
0<
0=
0>
b0 ?
b0 @
b1000 A
$end
#5000
1!
0$
b0 %
b100100 (
x)
z+
b1 -
1/
02
b0 3
08
b1 :
1<
b100100 ?
#10000
0!
1#
1'
0/
11
0<
#15000
1!
0$
b0 %
b10000001 (
1)
1+
b100101 -
1/
02
b0 3
08
1<
b10000001 ?
#20000
0!
0/
0<
#25000
1!
1$
b100110 %
1&
b1001 (
1*
1+
b10000010 -
1/
02
b0 3
14
b100110 5
08
1<
b1001 ?
#30000
0!
0/
0<
#35000
1!
1$
b10000011 %
b1100011 (
1+
b1010 -
1/
02
b0 3
b10000011 5
16
18
b100111 :
1<
b1100011 ?
#40000
0!
0/
0<
#45000
1!
1#
1$
b1011 %
b1101 (
1+
b1100100 -
1/
12
b101000 3
b1011 5
17
18
b10000100 :
1<
1>
b1101 ?
b101000 @
#50000
0!
0/
0<
#55000
1!
1$
b1100101 %
b10001101 (
1+
b1110 -
1/
12
b10000101 3
b1100101 5
18
b1100 :
1<
b10001101 ?
b10000101 @
#60000
0!
0/
0<
#65000
1!
1$
b1111 %
b1100101 (
1+
b10001110 -
1/
12
b1101 3
b1111 5
18
b1100110 :
1<
b1100101 ?
b1101 @
#70000
0!
0/
0<
#75000
1!
1$
b10001111 %
b10010 (
1+
b1100110 -
1/
12
b1100111 3
b10001111 5
18
b10000 :
1<
b10010 ?
b1100111 @
#80000
0!
0/
0<
#85000
1!
1$
b1100111 %
b1 (
1+
b10011 -
1/
12
b10001 3
b1100111 5
18
b10010000 :
1<
b1 ?
b10001 @
#90000
0!
0/
0<
#95000
1!
1$
b10100 %
b1101 (
1+
b10 -
1/
12
b10010001 3
b10100 5
18
b1101000 :
1<
b1101 ?
b10010001 @
#100000
0!
0/
0<
#105000
1!
1$
b11 %
b1110110 (
1+
b1110 -
1/
12
b1101001 3
b11 5
18
b10101 :
1<
b1110110 ?
b1101001 @
#110000
0!
0/
0<
#115000
1!
1$
b1111 %
b111101 (
1+
b1110111 -
1/
12
b10110 3
b1111 5
18
b100 :
1<
b111101 ?
b10110 @
#120000
0!
0/
0<
#125000
1!
1$
b1111000 %
b11101101 (
1+
b111110 -
1/
12
b101 3
b1111000 5
18
b10000 :
1<
b11101101 ?
b101 @
#130000
0!
0/
0<
#135000
1!
1$
b111111 %
b10001100 (
1+
b11101110 -
1/
12
b10001 3
b111111 5
18
b1111001 :
1<
b10001100 ?
b10001 @
#140000
0!
0/
0<
#145000
1!
1$
b11101111 %
b11111001 (
1+
b10001101 -
1/
12
b1111010 3
b11101111 5
18
b1000000 :
1<
b11111001 ?
b1111010 @
#150000
0!
0/
0<
#155000
1!
1$
b10001110 %
b11000110 (
1+
b11111010 -
1/
12
b1000001 3
b10001110 5
18
b11110000 :
1<
b11000110 ?
b1000001 @
#160000
0!
0/
0<
#165000
1!
1$
b11111011 %
b11000101 (
1+
b11000111 -
1/
12
b11110001 3
b11111011 5
18
b10001111 :
1<
b11000101 ?
b11110001 @
#170000
0!
0/
0<
#175000
1!
1$
b11001000 %
b10101010 (
1+
b11000110 -
1/
12
b10010000 3
b11001000 5
18
b11111100 :
1<
b10101010 ?
b10010000 @
#180000
0!
0/
0<
#185000
1!
1$
b11000111 %
b11100101 (
1+
b10101011 -
1/
12
b11111101 3
b11000111 5
18
b11001001 :
1<
b11100101 ?
b11111101 @
#190000
0!
0/
0<
#195000
1!
1$
b10101100 %
b1110111 (
1+
b11100110 -
1/
12
b11001010 3
b10101100 5
18
b11001000 :
1<
b1110111 ?
b11001010 @
#200000
0!
0/
0<
#205000
1!
1$
b11100111 %
b10010 (
1+
b1111000 -
1/
12
b11001001 3
b11100111 5
18
b10101101 :
1<
b10010 ?
b11001001 @
#210000
0!
0'
0/
0<
#215000
1!
1$
b1111001 %
b10001111 (
0)
0+
b10011 -
1/
12
b10101110 3
b1111001 5
18
b11101000 :
1<
b10001111 ?
b10101110 @
#220000
0!
0/
0<
#225000
1!
0$
b1111001 %
1&
b11110010 (
0*
0+
b10010000 -
1/
12
b11101001 3
04
18
b1111010 :
1<
b11110010 ?
b11101001 @
#230000
0!
0/
0<
#235000
1!
0$
b1111001 %
b11001110 (
0+
b11110011 -
1/
12
b1111011 3
06
08
1<
b11001110 ?
b1111011 @
#240000
0!
0/
0<
#245000
1!
1#
0$
b1111001 %
b11101000 (
0+
b11001111 -
1/
02
b1111011 3
07
08
1<
0>
b11101000 ?
#250000
0!
0/
0<
#255000
1!
0$
b1111001 %
b11000101 (
0+
b11101001 -
1/
02
b1111011 3
08
1<
b11000101 ?
#260000
0!
0/
0<
#265000
1!
0$
b1111001 %
b1011100 (
0+
b11000110 -
1/
02
b1111011 3
08
1<
b1011100 ?
#270000
0!
0/
0<
#275000
1!
0$
b1111001 %
b10111101 (
0+
b1011101 -
1/
02
b1111011 3
08
1<
b10111101 ?
#280000
0!
0/
0<
#285000
1!
0$
b1111001 %
b101101 (
0+
b10111110 -
1/
02
b1111011 3
08
1<
b101101 ?
#290000
0!
0/
0<
#295000
1!
0$
b1111001 %
b1100101 (
0+
b101110 -
1/
02
b1111011 3
08
1<
b1100101 ?
#300000
0!
0/
0<
#305000
1!
0$
b1111001 %
b1100011 (
0+
b1100110 -
1/
02
b1111011 3
08
1<
b1100011 ?
#310000
0!
1'
0/
0<
#315000
1!
0$
b1111001 %
b1010 (
1)
1+
b1100100 -
1/
02
b1111011 3
08
1<
b1010 ?
#320000
0!
0/
0<
#325000
1!
1$
b1100101 %
1&
b10000000 (
1*
1+
b1011 -
1/
02
b1111011 3
14
b1100101 5
08
1<
b10000000 ?
#330000
0!
0/
0<
#335000
1!
1$
b1100 %
b100000 (
1+
b10000001 -
1/
02
b1111011 3
b1100 5
16
18
b1100110 :
1<
b100000 ?
#340000
0!
0/
0<
#345000
1!
1#
1$
b10000010 %
b10101010 (
1+
b100001 -
1/
12
b1100111 3
b10000010 5
17
18
b1101 :
1<
1>
b10101010 ?
b1100111 @
#350000
0!
0/
0<
#355000
1!
1$
b100010 %
b10011101 (
1+
b10101011 -
1/
12
b1110 3
b100010 5
18
b10000011 :
1<
b10011101 ?
b1110 @
#360000
0!
0/
0<
#365000
1!
1$
b10101100 %
b10010110 (
1+
b10011110 -
1/
12
b10000100 3
b10101100 5
18
b100011 :
1<
b10010110 ?
b10000100 @
#370000
0!
0/
0<
#375000
1!
1$
b10011111 %
b10011 (
1+
b10010111 -
1/
12
b100100 3
b10011111 5
18
b10101101 :
1<
b10011 ?
b100100 @
#380000
0!
0/
0<
#385000
1!
1$
b10011000 %
b1101 (
1+
b10100 -
1/
12
b10101110 3
b10011000 5
18
b10100000 :
1<
b1101 ?
b10101110 @
#390000
0!
0/
0<
#395000
1!
1$
b10101 %
b1010011 (
1+
b1110 -
1/
12
b10100001 3
b10101 5
18
b10011001 :
1<
b1010011 ?
b10100001 @
#400000
0!
0/
0<
#405000
1!
1$
b1111 %
b1101011 (
1+
b1010100 -
1/
12
b10011010 3
b1111 5
18
b10110 :
1<
b1101011 ?
b10011010 @
#410000
0!
0#
0&
0)
0*
0/
01
06
07
0<
#415000
1!
1$
b1111 %
1+
1/
12
b10011010 3
18
1<
b1101011 ?
#420000
0!
0/
0<
#425000
1!
1$
b1111 %
1+
1/
12
b10011010 3
18
1<
b1101011 ?
#430000
0!
0/
0<
#435000
1!
1$
b1111 %
1+
1/
12
b10011010 3
18
1<
b1101011 ?
#440000
0!
0/
0<
#445000
1!
1$
b1111 %
1+
1/
12
b10011010 3
18
1<
b1101011 ?
#450000
0!
0/
0<
#455000
1!
1$
b1111 %
1+
1/
12
b10011010 3
18
1<
b1101011 ?
#460000
0!
0/
0<
#465000
1!
1$
b1111 %
1+
1/
12
b10011010 3
18
1<
b1101011 ?
#470000
0!
0/
0<
#475000
1!
1$
b1111 %
1+
1/
12
b10011010 3
18
1<
b1101011 ?
#480000
0!
0/
0<
#485000
1!
1$
b1111 %
1+
1/
12
b10011010 3
18
1<
b1101011 ?
#490000
0!
0/
0<
#495000
1!
1$
b1111 %
1+
1/
12
b10011010 3
18
1<
b1101011 ?
#500000
0!
0/
0<
#505000
1!
1$
b1111 %
1+
1/
12
b10011010 3
18
1<
b1101011 ?
#510000
0!
1#
1&
1)
1*
0/
11
16
17
0<
#515000
1!
1$
b1010101 %
b11010101 (
1+
b1101100 -
1/
12
b10111 3
b1010101 5
18
b10000 :
1<
b11010101 ?
b10111 @
#520000
0!
0/
0<
#525000
1!
1$
b1101101 %
b10 (
1+
b11010110 -
1/
12
b10001 3
b1101101 5
18
b1010110 :
1<
b10 ?
b10001 @
#530000
0!
0/
0<
#535000
1!
1$
b11010111 %
b10101110 (
1+
b11 -
1/
12
b1010111 3
b11010111 5
18
b1101110 :
1<
b10101110 ?
b1010111 @
#540000
0!
0/
0<
#545000
1!
1$
b100 %
b11101 (
1+
b10101111 -
1/
12
b1101111 3
b100 5
18
b11011000 :
1<
b11101 ?
b1101111 @
#550000
0!
0/
0<
#555000
1!
1$
b10110000 %
b11001111 (
1+
b11110 -
1/
12
b11011001 3
b10110000 5
18
b101 :
1<
b11001111 ?
b11011001 @
#560000
0!
0/
0<
#565000
1!
1$
b11111 %
b100011 (
1+
b11010000 -
1/
12
b110 3
b11111 5
18
b10110001 :
1<
b100011 ?
b110 @
#570000
0!
0/
0<
#575000
1!
1$
b11010001 %
b1010 (
1+
b100100 -
1/
12
b10110010 3
b11010001 5
18
b100000 :
1<
b1010 ?
b10110010 @
#580000
0!
0/
0<
#585000
1!
1$
b100101 %
b11001010 (
1+
b1011 -
1/
12
b100001 3
b100101 5
18
b11010010 :
1<
b11001010 ?
b100001 @
#590000
0!
0/
0<
#595000
1!
1$
b1100 %
b111100 (
1+
b11001011 -
1/
12
b11010011 3
b1100 5
18
b100110 :
1<
b111100 ?
b11010011 @
#600000
0!
0/
0<
#605000
1!
1$
b11001100 %
b11110010 (
1+
b111101 -
1/
12
b100111 3
b11001100 5
18
b1101 :
1<
b11110010 ?
b100111 @
