vcd/axi_module.vcd
$date
   Sun Nov 13 19:20:17 2022
$end
$version
  2020.2
$end
$timescale
  1ps
$end
$scope module tb $end
$var reg 1 6 aclk $end
$var reg 1 7 areset $end
$var wire 1 & up_ready $end
$var wire 1 ' up_valid $end
$var wire 1 # down_ready $end
$var wire 1 1 down_valid $end
$var wire 1 . last_ready $end
$var wire 1 8 last_valid $end
$var reg 8 9 up_data [7:0] $end
$var wire 8 2 down_data [7:0] $end
$var wire 8 : last_data [7:0] $end
$var parameter 32 ; DWIDTH [31:0] $end
$scope module master $end
$var wire 1 ! aclk_i $end
$var wire 1 " areset_i $end
$var wire 1 # ready_i $end
$var reg 1 $ valid_o $end
$var reg 8 % data_o [7:0] $end
$var wire 1 & ready_o $end
$var wire 1 ' valid_i $end
$var wire 8 ( data_i [7:0] $end
$var wire 1 ) input_trig $end
$var wire 1 * output_trig $end
$var parameter 32 + DWIDTH [31:0] $end
$upscope $end
$scope module slave $end
$var wire 1 , aclk_i $end
$var wire 1 - areset_i $end
$var wire 1 . ready_i $end
$var reg 1 / valid_o $end
$var reg 8 0 data_o [7:0] $end
$var wire 1 # ready_o $end
$var wire 1 1 valid_i $end
$var wire 8 2 data_i [7:0] $end
$var wire 1 3 input_trig $end
$var wire 1 4 output_trig $end
$var parameter 32 5 DWIDTH [31:0] $end
$upscope $end
$upscope $end
$enddefinitions $end
#0
$dumpvars
0!
0"
1#
0$
b0 %
1&
z'
b0 (
x)
0*
b1000 +
0,
0-
z.
0/
b0 0
01
b0 2
03
04
b1000 5
06
07
08
b0 9
b0 :
b1000 ;
$end
#5000
1!
0$
b0 %
b100100 (
1,
0/
b0 0
16
b100100 9
#10000
0!
1#
1'
1)
0,
1.
06
#15000
1!
1$
b100101 %
1&
b10000001 (
1*
1,
0/
b0 0
11
b100101 2
13
16
b10000001 9
#20000
0!
0,
06
#25000
1!
1#
1$
b10000010 %
b1001 (
1,
1/
b100110 0
b10000010 2
14
16
18
b1001 9
b100110 :
#30000
0!
0,
06
#35000
1!
1$
b1010 %
b1100011 (
1,
1/
b10000011 0
b1010 2
16
b1100011 9
b10000011 :
#40000
0!
0,
06
#45000
1!
1$
b1100100 %
b1101 (
1,
1/
b1011 0
b1100100 2
16
b1101 9
b1011 :
#50000
0!
0,
06
#55000
1!
1$
b1110 %
b10001101 (
1,
1/
b1100101 0
b1110 2
16
b10001101 9
b1100101 :
#60000
0!
0,
06
#65000
1!
1$
b10001110 %
b1100101 (
1,
1/
b1111 0
b10001110 2
16
b1100101 9
b1111 :
#70000
0!
0,
06
#75000
1!
1$
b1100110 %
b10010 (
1,
1/
b10001111 0
b1100110 2
16
b10010 9
b10001111 :
#80000
0!
0,
06
#85000
1!
1$
b10011 %
b1 (
1,
1/
b1100111 0
b10011 2
16
b1 9
b1100111 :
#90000
0!
0,
06
#95000
1!
1$
b10 %
b1101 (
1,
1/
b10100 0
b10 2
16
b1101 9
b10100 :
#100000
0!
0,
06
#105000
1!
1$
b1110 %
b1110110 (
1,
1/
b11 0
b1110 2
16
b1110110 9
b11 :
#110000
0!
0'
0)
0,
06
#115000
1!
0$
b1110 %
1&
b111101 (
0*
1,
1/
b1111 0
01
03
16
b111101 9
b1111 :
#120000
0!
0,
06
#125000
1!
1#
0$
b1110 %
b11101101 (
1,
0/
b1111 0
04
16
08
b11101101 9
#130000
0!
0,
06
#135000
1!
0$
b1110 %
b10001100 (
1,
0/
b1111 0
16
b10001100 9
#140000
0!
0,
06
#145000
1!
0$
b1110 %
b11111001 (
1,
0/
b1111 0
16
b11111001 9
#150000
0!
0,
06
#155000
1!
0$
b1110 %
b11000110 (
1,
0/
b1111 0
16
b11000110 9
#160000
0!
0,
06
#165000
1!
0$
b1110 %
b11000101 (
1,
0/
b1111 0
16
b11000101 9
#170000
0!
0,
06
#175000
1!
0$
b1110 %
b10101010 (
1,
0/
b1111 0
16
b10101010 9
#180000
0!
0,
06
#185000
1!
0$
b1110 %
b11100101 (
1,
0/
b1111 0
16
b11100101 9
#190000
0!
0,
06
#195000
1!
0$
b1110 %
b1110111 (
1,
0/
b1111 0
16
b1110111 9
#200000
0!
0,
06
#205000
1!
0$
b1110 %
b10010 (
1,
0/
b1111 0
16
b10010 9
#210000
0!
1'
1)
0,
06
#215000
1!
1$
b10011 %
1&
b10001111 (
1*
1,
0/
b1111 0
11
b10011 2
13
16
b10001111 9
#220000
0!
0,
06
#225000
1!
1#
1$
b10010000 %
b11110010 (
1,
1/
b10100 0
b10010000 2
14
16
18
b11110010 9
b10100 :
#230000
0!
0,
06
#235000
1!
1$
b11110011 %
b11001110 (
1,
1/
b10010001 0
b11110011 2
16
b11001110 9
b10010001 :
#240000
0!
0,
06
#245000
1!
1$
b11001111 %
b11101000 (
1,
1/
b11110100 0
b11001111 2
16
b11101000 9
b11110100 :
#250000
0!
0,
06
#255000
1!
1$
b11101001 %
b11000101 (
1,
1/
b11010000 0
b11101001 2
16
b11000101 9
b11010000 :
#260000
0!
0,
06
#265000
1!
1$
b11000110 %
b1011100 (
1,
1/
b11101010 0
b11000110 2
16
b1011100 9
b11101010 :
#270000
0!
0,
06
#275000
1!
1$
b1011101 %
b10111101 (
1,
1/
b11000111 0
b1011101 2
16
b10111101 9
b11000111 :
#280000
0!
0,
06
#285000
1!
1$
b10111110 %
b101101 (
1,
1/
b1011110 0
b10111110 2
16
b101101 9
b1011110 :
#290000
0!
0,
06
#295000
1!
1$
b101110 %
b1100101 (
1,
1/
b10111111 0
b101110 2
16
b1100101 9
b10111111 :
#300000
0!
0,
06
#305000
1!
1$
b1100110 %
b1100011 (
1,
1/
b101111 0
b1100110 2
16
b1100011 9
b101111 :
#310000
0!
0#
0&
0)
0*
0,
0.
03
04
06
#315000
1!
1$
b1100110 %
1,
1/
b101111 0
16
b1100011 9
#320000
0!
0,
06
#325000
1!
1$
b1100110 %
1,
1/
b101111 0
16
b1100011 9
#330000
0!
0,
06
#335000
1!
1$
b1100110 %
1,
1/
b101111 0
16
b1100011 9
#340000
0!
0,
06
#345000
1!
1$
b1100110 %
1,
1/
b101111 0
16
b1100011 9
#350000
0!
0,
06
#355000
1!
1$
b1100110 %
1,
1/
b101111 0
16
b1100011 9
#360000
0!
0,
06
#365000
1!
1$
b1100110 %
1,
1/
b101111 0
16
b1100011 9
#370000
0!
0,
06
#375000
1!
1$
b1100110 %
1,
1/
b101111 0
16
b1100011 9
#380000
0!
0,
06
#385000
1!
1$
b1100110 %
1,
1/
b101111 0
16
b1100011 9
#390000
0!
0,
06
#395000
1!
1$
b1100110 %
1,
1/
b101111 0
16
b1100011 9
#400000
0!
0,
06
#405000
1!
1$
b1100110 %
1,
1/
b101111 0
16
b1100011 9
#410000
0!
1#
1&
1)
1*
0,
1.
13
14
06
#415000
1!
1$
b1100100 %
b1010 (
1,
1/
b1100111 0
b1100100 2
16
b1010 9
b1100111 :
#420000
0!
0,
06
#425000
1!
1$
b1011 %
b10000000 (
1,
1/
b1100101 0
b1011 2
16
b10000000 9
b1100101 :
#430000
0!
0,
06
#435000
1!
1$
b10000001 %
b100000 (
1,
1/
b1100 0
b10000001 2
16
b100000 9
b1100 :
#440000
0!
0,
06
#445000
1!
1$
b100001 %
b10101010 (
1,
1/
b10000010 0
b100001 2
16
b10101010 9
b10000010 :
#450000
0!
0,
06
#455000
1!
1$
b10101011 %
b10011101 (
1,
1/
b100010 0
b10101011 2
16
b10011101 9
b100010 :
#460000
0!
0,
06
#465000
1!
1$
b10011110 %
b10010110 (
1,
1/
b10101100 0
b10011110 2
16
b10010110 9
b10101100 :
#470000
0!
0,
06
#475000
1!
1$
b10010111 %
b10011 (
1,
1/
b10011111 0
b10010111 2
16
b10011 9
b10011111 :
#480000
0!
0,
06
#485000
1!
1$
b10100 %
b1101 (
1,
1/
b10011000 0
b10100 2
16
b1101 9
b10011000 :
#490000
0!
0,
06
#495000
1!
1$
b1110 %
b1010011 (
1,
1/
b10101 0
b1110 2
16
b1010011 9
b10101 :
#500000
0!
0,
06
#505000
1!
1$
b1010100 %
b1101011 (
1,
1/
b1111 0
b1010100 2
16
b1101011 9
b1111 :
